Suite/Test/Step Name,Browser,Description,Tag,Start time,End time,Duration,Status
Change Profile Website,Chrome 114.0.0.0,,,2023-07-23 00:26:12,2023-07-23 00:29:56,3m - 43.743s,FAILED
,,,,,,,
Test Cases/Test Case Punya Ardel/Website/Change Profile/Positive/TCW-32 Change Profile user Fullname saja,Chrome 114.0.0.0,,,2023-07-23 00:26:13,2023-07-23 00:26:49,36.938s,PASSED
"callTestCase(findTestCase(""Test Case Punya Ardel/Website/Login/Login akun valid ardel""), [:], STOP_ON_FAILURE)",Chrome 114.0.0.0,,,2023-07-23 00:26:13,2023-07-23 00:26:30,16.756s,PASSED
"click(findTestObject(""Object Punya Ardel/Website/Page_Coding.ID/homePageAfterLogin""))",Chrome 114.0.0.0,,,2023-07-23 00:26:30,2023-07-23 00:26:30,0.567s,PASSED
"click(findTestObject(""Object Punya Ardel/Website/Page_Coding.ID/buttonMyAccount""))",Chrome 114.0.0.0,,,2023-07-23 00:26:30,2023-07-23 00:26:33,2.207s,PASSED
"click(findTestObject(""Object Punya Ardel/Website/PageDashboardUserProfile/buttonProfil""))",Chrome 114.0.0.0,,,2023-07-23 00:26:33,2023-07-23 00:26:34,1.361s,PASSED
"click(findTestObject(""Object Punya Ardel/Website/PageDashboardUserProfile/buttonEditProfile""))",Chrome 114.0.0.0,,,2023-07-23 00:26:34,2023-07-23 00:26:35,1.145s,PASSED
"setText(findTestObject(""Object Punya Ardel/Website/PageDashboardUserProfile/inputFullname""), ""Reyansyah edittt"")",Chrome 114.0.0.0,,,2023-07-23 00:26:35,2023-07-23 00:26:36,1.336s,PASSED
"click(findTestObject(""Object Punya Ardel/Website/PageDashboardUserProfile/buttonSaveChanges""))",Chrome 114.0.0.0,,,2023-07-23 00:26:36,2023-07-23 00:26:38,1.114s,PASSED
"click(findTestObject(""Object Punya Ardel/Website/PageDashboardUserProfile/buttonOK""))",Chrome 114.0.0.0,,,2023-07-23 00:26:38,2023-07-23 00:26:38,0.837s,PASSED
"verifyElementVisible(findTestObject(""Object Punya Ardel/Website/PageDashboardUserProfile/afterEditFullname""))",Chrome 114.0.0.0,,,2023-07-23 00:26:38,2023-07-23 00:26:39,0.511s,PASSED
"verifyElementText(findTestObject(""Object Punya Ardel/Website/PageDashboardUserProfile/afterEditFullname""), ""Reyansyah edittt"")",Chrome 114.0.0.0,,,2023-07-23 00:26:39,2023-07-23 00:26:39,0.545s,PASSED
delay(5),Chrome 114.0.0.0,,,2023-07-23 00:26:39,2023-07-23 00:26:44,5.055s,PASSED
Start listener action : sampleAfterTestCase,Chrome 114.0.0.0,,,2023-07-23 00:26:44,2023-07-23 00:26:49,4.960s,PASSED
,,,,,,,
Test Cases/Test Case Punya Ardel/Website/Change Profile/Negative/TCW-33 Change Profile user Fullname dengan karakter number (Failed TC),Chrome 114.0.0.0,,,2023-07-23 00:26:49,2023-07-23 00:27:48,58.392s,FAILED
"callTestCase(findTestCase(""Test Case Punya Ardel/Website/Login/Login akun valid ardel""), [:], STOP_ON_FAILURE)",Chrome 114.0.0.0,,,2023-07-23 00:26:50,2023-07-23 00:27:05,15.232s,PASSED
"click(findTestObject(""Object Punya Ardel/Website/Page_Coding.ID/homePageAfterLogin""))",Chrome 114.0.0.0,,,2023-07-23 00:27:05,2023-07-23 00:27:06,0.528s,PASSED
"click(findTestObject(""Object Punya Ardel/Website/Page_Coding.ID/buttonMyAccount""))",Chrome 114.0.0.0,,,2023-07-23 00:27:06,2023-07-23 00:27:08,1.840s,PASSED
"click(findTestObject(""Object Punya Ardel/Website/PageDashboardUserProfile/buttonProfil""))",Chrome 114.0.0.0,,,2023-07-23 00:27:08,2023-07-23 00:27:09,1.420s,PASSED
"click(findTestObject(""Object Punya Ardel/Website/PageDashboardUserProfile/buttonEditProfile""))",Chrome 114.0.0.0,,,2023-07-23 00:27:09,2023-07-23 00:27:11,1.575s,PASSED
"setText(findTestObject(""Object Punya Ardel/Website/PageDashboardUserProfile/inputFullname""), ""1234567"")",Chrome 114.0.0.0,,,2023-07-23 00:27:11,2023-07-23 00:27:13,2.026s,PASSED
"click(findTestObject(""Object Punya Ardel/Website/PageDashboardUserProfile/buttonSaveChanges""))",Chrome 114.0.0.0,,,2023-07-23 00:27:13,2023-07-23 00:27:14,1.016s,PASSED
"verifyElementText(findTestObject(""Object Punya Ardel/Website/PageDashboardUserProfile/alertChangeProfile""), ""Fullname must be Aplhabet."")",Chrome 114.0.0.0,,,2023-07-23 00:27:14,2023-07-23 00:27:46,31.862s,FAILED
Start listener action : sampleAfterTestCase,Chrome 114.0.0.0,,,2023-07-23 00:27:46,2023-07-23 00:27:48,2.195s,PASSED
,,,,,,,
Test Cases/Test Case Punya Ardel/Website/Change Profile/Negative/TCW-35 Change Profile user Fullname dengan mengkosongkan (menghapus Fullname),Chrome 114.0.0.0,,,2023-07-23 00:27:48,2023-07-23 00:28:22,34.373s,PASSED
"callTestCase(findTestCase(""Test Case Punya Ardel/Website/Login/Login akun valid ardel""), [:], STOP_ON_FAILURE)",Chrome 114.0.0.0,,,2023-07-23 00:27:49,2023-07-23 00:28:09,20.328s,PASSED
"click(findTestObject(""Object Punya Ardel/Website/Page_Coding.ID/homePageAfterLogin""))",Chrome 114.0.0.0,,,2023-07-23 00:28:09,2023-07-23 00:28:10,0.599s,PASSED
"click(findTestObject(""Object Punya Ardel/Website/Page_Coding.ID/buttonMyAccount""))",Chrome 114.0.0.0,,,2023-07-23 00:28:10,2023-07-23 00:28:12,2.422s,PASSED
"click(findTestObject(""Object Punya Ardel/Website/PageDashboardUserProfile/buttonProfil""))",Chrome 114.0.0.0,,,2023-07-23 00:28:12,2023-07-23 00:28:13,1.271s,PASSED
"click(findTestObject(""Object Punya Ardel/Website/PageDashboardUserProfile/buttonEditProfile""))",Chrome 114.0.0.0,,,2023-07-23 00:28:13,2023-07-23 00:28:15,1.604s,PASSED
"setText(findTestObject(""Object Punya Ardel/Website/PageDashboardUserProfile/inputFullname""), """")",Chrome 114.0.0.0,,,2023-07-23 00:28:15,2023-07-23 00:28:17,1.738s,PASSED
"click(findTestObject(""Object Punya Ardel/Website/PageDashboardUserProfile/buttonSaveChanges""))",Chrome 114.0.0.0,,,2023-07-23 00:28:17,2023-07-23 00:28:18,1.268s,PASSED
"verifyElementText(findTestObject(""Object Punya Ardel/Website/PageDashboardUserProfile/alertChangeProfile""), ""The name field is required."")",Chrome 114.0.0.0,,,2023-07-23 00:28:18,2023-07-23 00:28:19,1.262s,PASSED
Start listener action : sampleAfterTestCase,Chrome 114.0.0.0,,,2023-07-23 00:28:19,2023-07-23 00:28:22,2.925s,PASSED
,,,,,,,
Test Cases/Test Case Punya Ardel/Website/Change Profile/Negative/TCW-36 Change Profile user Password dengan karakter simbol (Failed TC),Chrome 114.0.0.0,,,2023-07-23 00:28:22,2023-07-23 00:29:23,1m - 1.154s,FAILED
"callTestCase(findTestCase(""Test Case Punya Ardel/Website/Login/Login akun valid ardel""), [:], STOP_ON_FAILURE)",Chrome 114.0.0.0,,,2023-07-23 00:28:23,2023-07-23 00:28:38,15.315s,PASSED
"click(findTestObject(""Object Punya Ardel/Website/Page_Coding.ID/homePageAfterLogin""))",Chrome 114.0.0.0,,,2023-07-23 00:28:38,2023-07-23 00:28:39,0.569s,PASSED
"click(findTestObject(""Object Punya Ardel/Website/Page_Coding.ID/buttonMyAccount""))",Chrome 114.0.0.0,,,2023-07-23 00:28:39,2023-07-23 00:28:41,2.455s,PASSED
"click(findTestObject(""Object Punya Ardel/Website/PageDashboardUserProfile/buttonProfil""))",Chrome 114.0.0.0,,,2023-07-23 00:28:41,2023-07-23 00:28:43,1.311s,PASSED
"click(findTestObject(""Object Punya Ardel/Website/PageDashboardUserProfile/buttonChangePassword""))",Chrome 114.0.0.0,,,2023-07-23 00:28:43,2023-07-23 00:28:45,2.230s,PASSED
"setText(findTestObject(""Object Punya Ardel/Website/PageDashboardUserProfile/inputOldPassword""), ""rey0000#"")",Chrome 114.0.0.0,,,2023-07-23 00:28:45,2023-07-23 00:28:47,1.648s,PASSED
"setText(findTestObject(""Object Punya Ardel/Website/PageDashboardUserProfile/inputNewPassword""), ""~!@#$%^&*("")",Chrome 114.0.0.0,,,2023-07-23 00:28:47,2023-07-23 00:28:48,0.968s,PASSED
"setText(findTestObject(""Object Punya Ardel/Website/PageDashboardUserProfile/inputConfirmationPassword""), ""~!@#$%^&*("")",Chrome 114.0.0.0,,,2023-07-23 00:28:48,2023-07-23 00:28:49,0.960s,PASSED
"click(findTestObject(""Object Punya Ardel/Website/PageDashboardUserProfile/buttonSaveChanges""))",Chrome 114.0.0.0,,,2023-07-23 00:28:49,2023-07-23 00:28:50,1.662s,PASSED
"verifyElementText(findTestObject(""Object Punya Ardel/Website/PageDashboardUserProfile/alertChangeProfile""), ""The password must be Alphanumeric and at least must have 8 characters."")",Chrome 114.0.0.0,,,2023-07-23 00:28:50,2023-07-23 00:29:22,31.930s,FAILED
Start listener action : sampleAfterTestCase,Chrome 114.0.0.0,,,2023-07-23 00:29:22,2023-07-23 00:29:23,1.296s,PASSED
,,,,,,,
Test Cases/Test Case Punya Ardel/Website/Change Profile/Negative/TCW- Change Profile user Password dengan password awal,Chrome 114.0.0.0,,,2023-07-23 00:29:24,2023-07-23 00:29:56,32.296s,PASSED
"openBrowser(""https://demo-app.online/"")",Chrome 114.0.0.0,,,2023-07-23 00:29:25,2023-07-23 00:29:33,8.350s,PASSED
"click(findTestObject(""Object Repository/Object Punya Ardel/Website/Page_Coding.ID/buttonMasukLogin""))",Chrome 114.0.0.0,,,2023-07-23 00:29:33,2023-07-23 00:29:35,2.113s,PASSED
"setText(findTestObject(""Object Punya Ardel/Website/PageMasukLogin/inputEmailLogin""), ""taksirey@gmail.com"")",Chrome 114.0.0.0,,,2023-07-23 00:29:35,2023-07-23 00:29:36,0.968s,PASSED
"setEncryptedText(findTestObject(""Object Punya Ardel/Website/PageMasukLogin/inputKataSandiLogin""), ""leVnMZDZv2kMX2fO9tc95Q=="")",Chrome 114.0.0.0,,,2023-07-23 00:29:36,2023-07-23 00:29:37,0.633s,PASSED
"click(findTestObject(""Object Punya Ardel/Website/PageMasukLogin/buttonLogin""))",Chrome 114.0.0.0,,,2023-07-23 00:29:37,2023-07-23 00:29:38,1.733s,PASSED
"verifyElementVisible(findTestObject(""Object Punya Ardel/Website/Page_Coding.ID/homePageAfterLogin""))",Chrome 114.0.0.0,,,2023-07-23 00:29:38,2023-07-23 00:29:39,0.744s,PASSED
"click(findTestObject(""Object Punya Ardel/Website/Page_Coding.ID/homePageAfterLogin""))",Chrome 114.0.0.0,,,2023-07-23 00:29:39,2023-07-23 00:29:40,0.603s,PASSED
"click(findTestObject(""Object Punya Ardel/Website/Page_Coding.ID/buttonMyAccount""))",Chrome 114.0.0.0,,,2023-07-23 00:29:40,2023-07-23 00:29:42,1.899s,PASSED
"click(findTestObject(""Object Punya Ardel/Website/PageDashboardUserProfile/buttonProfil""))",Chrome 114.0.0.0,,,2023-07-23 00:29:42,2023-07-23 00:29:43,1.799s,PASSED
"click(findTestObject(""Object Punya Ardel/Website/PageDashboardUserProfile/buttonChangePassword""))",Chrome 114.0.0.0,,,2023-07-23 00:29:43,2023-07-23 00:29:45,1.557s,PASSED
"setText(findTestObject(""Object Punya Ardel/Website/PageDashboardUserProfile/inputOldPassword""), ""~!@#$%^&*("")",Chrome 114.0.0.0,,,2023-07-23 00:29:45,2023-07-23 00:29:47,1.656s,PASSED
"setText(findTestObject(""Object Punya Ardel/Website/PageDashboardUserProfile/inputNewPassword""), ""rey0000#"")",Chrome 114.0.0.0,,,2023-07-23 00:29:47,2023-07-23 00:29:47,0.876s,PASSED
"setText(findTestObject(""Object Punya Ardel/Website/PageDashboardUserProfile/inputConfirmationPassword""), ""rey0000#"")",Chrome 114.0.0.0,,,2023-07-23 00:29:47,2023-07-23 00:29:48,0.853s,PASSED
"click(findTestObject(""Object Punya Ardel/Website/PageDashboardUserProfile/buttonSaveChanges""))",Chrome 114.0.0.0,,,2023-07-23 00:29:48,2023-07-23 00:29:52,3.359s,PASSED
"verifyElementText(findTestObject(""Object Punya Ardel/Website/PageDashboardUserProfile/popUpBerhasil""), ""Kata sandi anda telah berubah"")",Chrome 114.0.0.0,,,2023-07-23 00:29:52,2023-07-23 00:29:53,0.820s,PASSED
"click(findTestObject(""Object Punya Ardel/Website/PageDashboardUserProfile/buttonOK""))",Chrome 114.0.0.0,,,2023-07-23 00:29:53,2023-07-23 00:29:53,0.546s,PASSED
Start listener action : sampleAfterTestCase,Chrome 114.0.0.0,,,2023-07-23 00:29:53,2023-07-23 00:29:56,2.740s,PASSED
