{
  "log" : {
    "version" : "1.2",
    "pages" : [ ],
    "entries" : [ {
      "startedDateTime" : "2023-07-23T10:19:31.935Z",
      "request" : {
        "method" : "POST",
        "url" : "https://demo-app.online/api/login",
        "httpVersion" : "",
        "cookies" : [ ],
        "headers" : [ {
          "name" : "Content-Type",
          "value" : "multipart/form-data"
        } ],
        "queryString" : [ ],
        "postData" : {
          "mimeType" : "multipart/form-data",
          "text" : "--1OA9ht-_fMvkZgN0pwYtfPPe8sFEWQ0iVWt6\r\nContent-Disposition: form-data; name=\"email\"\r\nContent-Type: text/plain; charset=ISO-8859-1\r\nContent-Transfer-Encoding: 8bit\r\n\r\nardeliayunisa23@gmail.com\r\n--1OA9ht-_fMvkZgN0pwYtfPPe8sFEWQ0iVWt6\r\nContent-Disposition: form-data; name=\"password\"\r\nContent-Type: text/plain; charset=ISO-8859-1\r\nContent-Transfer-Encoding: 8bit\r\n\r\nyunisa23\r\n--1OA9ht-_fMvkZgN0pwYtfPPe8sFEWQ0iVWt6--\r\n",
          "comment" : ""
        },
        "headersSize" : 0,
        "bodySize" : 0,
        "comment" : ""
      },
      "response" : {
        "status" : 200,
        "statusText" : "",
        "httpVersion" : "",
        "cookies" : [ ],
        "headers" : [ {
          "name" : "Keep-Alive",
          "value" : "timeout=5, max=100"
        }, {
          "name" : "access-control-allow-origin",
          "value" : "*"
        }, {
          "name" : "date",
          "value" : "Sun, 23 Jul 2023 10:19:45 GMT"
        }, {
          "name" : "server",
          "value" : "LiteSpeed"
        }, {
          "name" : "x-ratelimit-limit",
          "value" : "60"
        }, {
          "name" : "vary",
          "value" : "Accept-Encoding"
        }, {
          "name" : "Connection",
          "value" : "Keep-Alive"
        }, {
          "name" : "x-powered-by",
          "value" : "PHP/7.4.33"
        }, {
          "name" : "content-type",
          "value" : "application/json"
        }, {
          "name" : "#status#",
          "value" : "HTTP/1.1 200 OK"
        }, {
          "name" : "cache-control",
          "value" : "no-cache, private"
        }, {
          "name" : "x-ratelimit-remaining",
          "value" : "50"
        } ],
        "content" : {
          "size" : 1385,
          "mimeType" : "application/json",
          "text" : "{\"success\":{\"member_name\":\"Basic\",\"member_id\":1,\"token\":\"eyJ0eXAiOiJKV1QiLCJhbGciOiJSUzI1NiJ9.eyJhdWQiOiIzIiwianRpIjoiYTQwZjUyNWEyYTAyNTE3ZjBkZjdhMWY4NjJmY2RjYzM0ZmRkNGVjOGYzMWY5NzczZTM2MGY1OGY1NmVjOGJmNzM1OTViNjIwMjJmOWNmOTEiLCJpYXQiOjE2OTAxMDc1ODUuMzYxODUyLCJuYmYiOjE2OTAxMDc1ODUuMzYxODU0LCJleHAiOjE3MjE3Mjk5ODUuMzYwODYsInN1YiI6IjY0OSIsInNjb3BlcyI6W119.DMdOyynIX-LwltAg1v4S9a5d0oHRu0wravlZk1sdHIKhOJLknuVSVxLCUwlcoJ9M6BzgQKjcyQYXNNxwXLvoA0boS0hHeK90JQCJCE45qc7hTBicCz9KNCchalF9IgteHf8t-WJ0UXreffHV7jjPOUdGOgZBZObosTGe30xXVtxe2Xj4Up_DKR4B5sj36z8wQA3RldnP6GFU6A38PW3vHM9OreVTgbetEEnBbFw-keOm-QOjSYR-RaZjYEGBi-kUsn1pO89OzQ1R5Zb3uxLO8j3NbASLm32Ufk7d78VsKqRB7dznjjHJ-GpDu0KQkY0gk3JzuxjYePEsvE1W4oeqHKC-TNrpz4GmdZ7iBD1cQrvgxREqs-Uc7ao1E7JInAsygVR_eeRmEkGKa5xpQqnmCVnyJ5gZQEp7XNusABWLANCuG4997T42eBqJBrawhFy2ET1n4-PyANNYvXV64OtkAXve4rkEF5UT6HzNyUcH2pCGAOaIum9-gzrhArQ6EJOuvHY8KvZasPZeHeGQ_NQvnJ6g7t57zl1vyQ3ldqB8syLlu2CVCYx_l6fbvRyHADI8zm_oBvgNeq1pe9kEtDHDZE7j9ON5z1N6DrvGZNtH7oAMj1IzVNJQFn6zwCJFQjDXQneFKIMZNd0tlhrj49M6FOCMnTDPz4oXTaSV_SgkUKo\",\"name\":\"Anika\",\"email\":\"ardeliayunisa23@gmail.com\",\"birth_date\":\"2012-07-10\",\"whatsapp\":\"012345678912\",\"referral\":\"SB0LK\",\"points\":\"0\",\"bio\":\"Software Dev\",\"position\":\"mobile dev\",\"photo\":\"https:\\/\\/storage.googleapis.com\\/codingid-storage-bucket\\/storage\\/uploads\\/avatar\\/16892458290fbe0053-1d67-4467-b12d-a3c54a93140f.jpg\",\"isPartner\":false}}",
          "comment" : ""
        },
        "redirectURL" : "",
        "headersSize" : 265,
        "bodySize" : -1,
        "comment" : ""
      },
      "cache" : { },
      "timings" : {
        "comment" : "",
        "connect" : 0,
        "ssl" : -1,
        "receive" : 0,
        "dns" : -1,
        "blocked" : -1,
        "send" : 0,
        "wait" : 0
      },
      "comment" : "",
      "_katalonRequestInformation" : {
        "name" : "11",
        "testObjectId" : "Object Repository/Object Punya Ardel/API/Login/LoginValidAkun",
        "harId" : "eb80f4b3-1197-4267-ba3c-d90af44e5459",
        "reportFolder" : null
      },
      "time" : 0
    } ],
    "comment" : ""
  }
}