Suite/Test/Step Name,Browser,Description,Tag,Start time,End time,Duration,Status
Login API,,,,2023-07-23 02:11:48,2023-07-23 02:12:00,11.879s,PASSED
,,,,,,,
Test Cases/Test Case Punya Ardel/API/Login/Positive/TCA-01 Login dengan akun valid,,,,2023-07-23 02:11:49,2023-07-23 02:11:57,7.891s,PASSED
"sendRequestAndVerify(findTestObject(""Object Punya Ardel/API/Login/LoginValidAkun"", [""email"":""taksirey@gmail.com"", ""password"":""rey0000#""]))",,,,2023-07-23 02:11:49,2023-07-23 02:11:56,6.701s,PASSED
Start listener action : sampleAfterTestCase,,,,2023-07-23 02:11:56,2023-07-23 02:11:57,0.754s,PASSED
,,,,,,,
Test Cases/Test Case Punya Ardel/API/Login/Negative/TCA-02 Login dengan akun belum verifikasi,,,,2023-07-23 02:11:57,2023-07-23 02:11:58,1.218s,PASSED
"sendRequestAndVerify(findTestObject(""Object Punya Ardel/API/Login/LoginAkunNotVerifikasi"", [""email"":""masala@gmail.com"", ""password"":""masala1234#""]))",,,,2023-07-23 02:11:57,2023-07-23 02:11:58,0.916s,PASSED
Start listener action : sampleAfterTestCase,,,,2023-07-23 02:11:58,2023-07-23 02:11:58,0.012s,PASSED
,,,,,,,
Test Cases/Test Case Punya Ardel/API/Login/Negative/TCA-03 Login dengan Email valid dan Kata sandi unvalid,,,,2023-07-23 02:11:58,2023-07-23 02:11:59,1.329s,PASSED
"sendRequestAndVerify(findTestObject(""Object Punya Ardel/API/Login/LoginUnvalidAkun"", [""email"":""taksirey@gmail.com"", ""password"":""rey12345678""]))",,,,2023-07-23 02:11:58,2023-07-23 02:11:59,0.985s,PASSED
Start listener action : sampleAfterTestCase,,,,2023-07-23 02:11:59,2023-07-23 02:11:59,0.010s,PASSED
,,,,,,,
Test Cases/Test Case Punya Ardel/API/Login/Negative/TCA-04 Login dengan Kata Sandi valid dan Email unvalid,,,,2023-07-23 02:11:59,2023-07-23 02:12:00,1.007s,PASSED
"sendRequestAndVerify(findTestObject(""Object Punya Ardel/API/Login/LoginUnvalidAkun"", [""email"":""manilada@mail.com"", ""password"":""rey0000#""]))",,,,2023-07-23 02:12:00,2023-07-23 02:12:00,0.633s,PASSED
Start listener action : sampleAfterTestCase,,,,2023-07-23 02:12:00,2023-07-23 02:12:00,0.018s,PASSED
