Suite/Test/Step Name,Browser,Description,Tag,Start time,End time,Duration,Status
Change Profile Website,Chrome 114.0.0.0,,,2023-07-23 00:38:38,2023-07-23 00:41:47,3m - 9.824s,FAILED
,,,,,,,
Test Cases/Test Case Punya Ardel/Website/Change Profile/Positive/TCW-32 Change Profile user Fullname saja,Chrome 114.0.0.0,,,2023-07-23 00:38:38,2023-07-23 00:39:19,40.802s,FAILED
"callTestCase(findTestCase(""Test Case Punya Ardel/Website/Login/Login akun valid ardel""), [:], STOP_ON_FAILURE)",Chrome 114.0.0.0,,,2023-07-23 00:38:38,2023-07-23 00:39:12,33.356s,PASSED
"click(findTestObject(""Object Punya Ardel/Website/Page_Coding.ID/homePageAfterLogin""))",Chrome 114.0.0.0,,,2023-07-23 00:39:12,2023-07-23 00:39:14,2.045s,PASSED
"click(findTestObject(""Object Punya Ardel/Website/Page_Coding.ID/buttonMyAccount""))",Chrome 114.0.0.0,,,2023-07-23 00:39:14,2023-07-23 00:39:17,2.985s,FAILED
Start listener action : sampleAfterTestCase,Chrome 114.0.0.0,,,2023-07-23 00:39:17,2023-07-23 00:39:19,1.854s,PASSED
,,,,,,,
Test Cases/Test Case Punya Ardel/Website/Change Profile/Negative/TCW-33 Change Profile user Fullname dengan karakter number (Failed TC),Chrome 114.0.0.0,,,2023-07-23 00:39:19,2023-07-23 00:39:51,32.031s,FAILED
"callTestCase(findTestCase(""Test Case Punya Ardel/Website/Login/Login akun valid ardel""), [:], STOP_ON_FAILURE)",Chrome 114.0.0.0,,,2023-07-23 00:39:19,2023-07-23 00:39:43,23.440s,PASSED
"click(findTestObject(""Object Punya Ardel/Website/Page_Coding.ID/homePageAfterLogin""))",Chrome 114.0.0.0,,,2023-07-23 00:39:43,2023-07-23 00:39:45,1.974s,PASSED
"click(findTestObject(""Object Punya Ardel/Website/Page_Coding.ID/buttonMyAccount""))",Chrome 114.0.0.0,,,2023-07-23 00:39:45,2023-07-23 00:39:48,2.979s,FAILED
Start listener action : sampleAfterTestCase,Chrome 114.0.0.0,,,2023-07-23 00:39:48,2023-07-23 00:39:51,2.939s,PASSED
,,,,,,,
Test Cases/Test Case Punya Ardel/Website/Change Profile/Negative/TCW-35 Change Profile user Fullname dengan mengkosongkan (menghapus Fullname),Chrome 114.0.0.0,,,2023-07-23 00:39:51,2023-07-23 00:40:17,26.551s,PASSED
"callTestCase(findTestCase(""Test Case Punya Ardel/Website/Login/Login akun valid ardel""), [:], STOP_ON_FAILURE)",Chrome 114.0.0.0,,,2023-07-23 00:39:51,2023-07-23 00:40:05,13.915s,PASSED
"click(findTestObject(""Object Punya Ardel/Website/Page_Coding.ID/homePageAfterLogin""))",Chrome 114.0.0.0,,,2023-07-23 00:40:05,2023-07-23 00:40:06,0.543s,PASSED
"click(findTestObject(""Object Punya Ardel/Website/Page_Coding.ID/buttonMyAccount""))",Chrome 114.0.0.0,,,2023-07-23 00:40:06,2023-07-23 00:40:08,1.776s,PASSED
"click(findTestObject(""Object Punya Ardel/Website/PageDashboardUserProfile/buttonProfil""))",Chrome 114.0.0.0,,,2023-07-23 00:40:08,2023-07-23 00:40:09,1.819s,PASSED
"click(findTestObject(""Object Punya Ardel/Website/PageDashboardUserProfile/buttonEditProfile""))",Chrome 114.0.0.0,,,2023-07-23 00:40:09,2023-07-23 00:40:11,1.586s,PASSED
"setText(findTestObject(""Object Punya Ardel/Website/PageDashboardUserProfile/inputFullname""), """")",Chrome 114.0.0.0,,,2023-07-23 00:40:11,2023-07-23 00:40:13,1.578s,PASSED
"click(findTestObject(""Object Punya Ardel/Website/PageDashboardUserProfile/buttonSaveChanges""))",Chrome 114.0.0.0,,,2023-07-23 00:40:13,2023-07-23 00:40:14,1.216s,PASSED
"verifyElementText(findTestObject(""Object Punya Ardel/Website/PageDashboardUserProfile/alertChangeProfile""), ""The name field is required."")",Chrome 114.0.0.0,,,2023-07-23 00:40:14,2023-07-23 00:40:15,1.058s,PASSED
Start listener action : sampleAfterTestCase,Chrome 114.0.0.0,,,2023-07-23 00:40:15,2023-07-23 00:40:17,2.457s,PASSED
,,,,,,,
Test Cases/Test Case Punya Ardel/Website/Change Profile/Negative/TCW-36 Change Profile user Password dengan karakter simbol (Failed TC),Chrome 114.0.0.0,,,2023-07-23 00:40:17,2023-07-23 00:41:15,57.715s,FAILED
"callTestCase(findTestCase(""Test Case Punya Ardel/Website/Login/Login akun valid ardel""), [:], STOP_ON_FAILURE)",Chrome 114.0.0.0,,,2023-07-23 00:40:18,2023-07-23 00:40:31,12.929s,PASSED
"click(findTestObject(""Object Punya Ardel/Website/Page_Coding.ID/homePageAfterLogin""))",Chrome 114.0.0.0,,,2023-07-23 00:40:31,2023-07-23 00:40:32,0.584s,PASSED
"click(findTestObject(""Object Punya Ardel/Website/Page_Coding.ID/buttonMyAccount""))",Chrome 114.0.0.0,,,2023-07-23 00:40:32,2023-07-23 00:40:34,2.091s,PASSED
"click(findTestObject(""Object Punya Ardel/Website/PageDashboardUserProfile/buttonProfil""))",Chrome 114.0.0.0,,,2023-07-23 00:40:34,2023-07-23 00:40:36,1.964s,PASSED
"click(findTestObject(""Object Punya Ardel/Website/PageDashboardUserProfile/buttonChangePassword""))",Chrome 114.0.0.0,,,2023-07-23 00:40:36,2023-07-23 00:40:37,1.184s,PASSED
"setText(findTestObject(""Object Punya Ardel/Website/PageDashboardUserProfile/inputOldPassword""), ""rey0000#"")",Chrome 114.0.0.0,,,2023-07-23 00:40:37,2023-07-23 00:40:38,1.609s,PASSED
"setText(findTestObject(""Object Punya Ardel/Website/PageDashboardUserProfile/inputNewPassword""), ""~!@#$%^&*("")",Chrome 114.0.0.0,,,2023-07-23 00:40:38,2023-07-23 00:40:39,0.979s,PASSED
"setText(findTestObject(""Object Punya Ardel/Website/PageDashboardUserProfile/inputConfirmationPassword""), ""~!@#$%^&*("")",Chrome 114.0.0.0,,,2023-07-23 00:40:39,2023-07-23 00:40:40,0.895s,PASSED
"click(findTestObject(""Object Punya Ardel/Website/PageDashboardUserProfile/buttonSaveChanges""))",Chrome 114.0.0.0,,,2023-07-23 00:40:40,2023-07-23 00:40:42,1.436s,PASSED
"verifyElementText(findTestObject(""Object Punya Ardel/Website/PageDashboardUserProfile/alertChangeProfile""), ""The password must be Alphanumeric and at least must have 8 characters."")",Chrome 114.0.0.0,,,2023-07-23 00:40:42,2023-07-23 00:41:14,32.036s,FAILED
Start listener action : sampleAfterTestCase,Chrome 114.0.0.0,,,2023-07-23 00:41:14,2023-07-23 00:41:15,1.241s,PASSED
,,,,,,,
Test Cases/Test Case Punya Ardel/Website/Change Profile/Negative/TCW- Change Profile user Password dengan password awal,Chrome 114.0.0.0,,,2023-07-23 00:41:15,2023-07-23 00:41:47,32.234s,PASSED
"openBrowser(""https://demo-app.online/"")",Chrome 114.0.0.0,,,2023-07-23 00:41:16,2023-07-23 00:41:25,8.603s,PASSED
"click(findTestObject(""Object Repository/Object Punya Ardel/Website/Page_Coding.ID/buttonMasukLogin""))",Chrome 114.0.0.0,,,2023-07-23 00:41:25,2023-07-23 00:41:27,1.960s,PASSED
"setText(findTestObject(""Object Punya Ardel/Website/PageMasukLogin/inputEmailLogin""), ""taksirey@gmail.com"")",Chrome 114.0.0.0,,,2023-07-23 00:41:27,2023-07-23 00:41:28,0.976s,PASSED
"setEncryptedText(findTestObject(""Object Punya Ardel/Website/PageMasukLogin/inputKataSandiLogin""), ""leVnMZDZv2kMX2fO9tc95Q=="")",Chrome 114.0.0.0,,,2023-07-23 00:41:28,2023-07-23 00:41:28,0.555s,PASSED
"click(findTestObject(""Object Punya Ardel/Website/PageMasukLogin/buttonLogin""))",Chrome 114.0.0.0,,,2023-07-23 00:41:28,2023-07-23 00:41:30,1.845s,PASSED
"verifyElementVisible(findTestObject(""Object Punya Ardel/Website/Page_Coding.ID/homePageAfterLogin""))",Chrome 114.0.0.0,,,2023-07-23 00:41:30,2023-07-23 00:41:31,0.733s,PASSED
"click(findTestObject(""Object Punya Ardel/Website/Page_Coding.ID/homePageAfterLogin""))",Chrome 114.0.0.0,,,2023-07-23 00:41:31,2023-07-23 00:41:31,0.628s,PASSED
"click(findTestObject(""Object Punya Ardel/Website/Page_Coding.ID/buttonMyAccount""))",Chrome 114.0.0.0,,,2023-07-23 00:41:31,2023-07-23 00:41:34,2.621s,PASSED
"click(findTestObject(""Object Punya Ardel/Website/PageDashboardUserProfile/buttonProfil""))",Chrome 114.0.0.0,,,2023-07-23 00:41:34,2023-07-23 00:41:35,1.266s,PASSED
"click(findTestObject(""Object Punya Ardel/Website/PageDashboardUserProfile/buttonChangePassword""))",Chrome 114.0.0.0,,,2023-07-23 00:41:35,2023-07-23 00:41:37,2.037s,PASSED
"setText(findTestObject(""Object Punya Ardel/Website/PageDashboardUserProfile/inputOldPassword""), ""~!@#$%^&*("")",Chrome 114.0.0.0,,,2023-07-23 00:41:37,2023-07-23 00:41:39,1.520s,PASSED
"setText(findTestObject(""Object Punya Ardel/Website/PageDashboardUserProfile/inputNewPassword""), ""rey0000#"")",Chrome 114.0.0.0,,,2023-07-23 00:41:39,2023-07-23 00:41:40,0.914s,PASSED
"setText(findTestObject(""Object Punya Ardel/Website/PageDashboardUserProfile/inputConfirmationPassword""), ""rey0000#"")",Chrome 114.0.0.0,,,2023-07-23 00:41:40,2023-07-23 00:41:41,0.847s,PASSED
"click(findTestObject(""Object Punya Ardel/Website/PageDashboardUserProfile/buttonSaveChanges""))",Chrome 114.0.0.0,,,2023-07-23 00:41:41,2023-07-23 00:41:42,1.356s,PASSED
"verifyElementText(findTestObject(""Object Punya Ardel/Website/PageDashboardUserProfile/popUpBerhasil""), ""Kata sandi anda telah berubah"")",Chrome 114.0.0.0,,,2023-07-23 00:41:42,2023-07-23 00:41:43,1.298s,PASSED
"click(findTestObject(""Object Punya Ardel/Website/PageDashboardUserProfile/buttonOK""))",Chrome 114.0.0.0,,,2023-07-23 00:41:43,2023-07-23 00:41:44,0.553s,PASSED
Start listener action : sampleAfterTestCase,Chrome 114.0.0.0,,,2023-07-23 00:41:44,2023-07-23 00:41:47,3.526s,PASSED
